{
    "_source": [
        "product.code_s",
        "product.type_s",
        "store",
        "id",
        "category.scopes_s",
        "price.updateTime",
        "price"
    ],
    "query": {
        "bool": {
            "filter": [
                {
                    "terms": {
                        "product.code_s": [
                            "thinkcentre-m90n-iot",
                            "33ts3tpp720"
                        ]
                    }
                },
                {
                    "terms": {
                        "store": [
                            "0e49db5e-0834-41ba-84fe-f796497ba9fc"
                        ]
                    }
                }
            ]
        }
    },
    "aggs": {
        "miniPrice1": {
            "nested": {
                "path": "price.config"
            },
            "aggs": {
                "miniPrice2": {
                    "filter": {
                        "bool": {
                            "should": [
                                {
                                    "bool": {
                                        "must": {
                                            "term": {
                                                "price.config.level": "store"
                                            }
                                        }
                                    }
                                },
                                {
                                    "bool": {
                                        "must": {
                                            "term": {
                                                "price.config.level": "country"
                                            }
                                        }
                                    }
                                }
                            ]
                        }
                    },
                    "aggs": {
                        "miniPrice3": {
                            "min": {
                                "field": "price.config.final_price.price"
                            }
                        }
                    }
                }
            }
        }
    },
    "size": 3
}